Car Accident Data
…
#Visibility is the main reason why driving at night is more difficult than in the day in actuality.
JakeCrash2$Weather_Condition <- factor(JakeCrash2$Weather_Condition)
JakeCrash2

## # A tibble: 965,350 x 10
##    Date        Hour Start_Lat County State `Temperature(F)` `Visibility(mi)`
##    <date>     <dbl>     <dbl> <chr>  <chr>            <dbl>            <dbl>
##  1 2016-02-08     5      39.9 Montg OH                36.9               10
##  2 2016-02-08     6      39.9 Frank OH                37.9               10
##  3 2016-02-08     7      40.1 Frank OH                37.9                7
##  4 2016-02-08     8      40.1 Frank OH                37.4                3
##  5 2016-02-08     8      39.9 Frank OH                37.4                3
##  6 2016-02-08     8      40.0 Frank OH                37.4                3
##  7 2016-02-08    10      40.1 Frank OH                33.8                2
##  8 2016-02-08    11      39.6 Montg OH                35.1                6
##  9 2016-02-08    12      40.0 Frank OH                37                  8
## 10 2016-02-08    12      40.2 Licki OH                37.9                5
## #  with 965,340 more rows, and 3 more variables: `Precipitation(in)` <dbl>,
## #   Weather_Condition <fct>, Sunrise_Sunset <fct>
…
